…
r.squared_5000 = nested_bootstrap %>% 
  unnest(glance) %>% 
  group_by(.id) %>% 
  summarize(
    r.squared = r.squared)

left_join(logb0b1_5000,r.squared_5000) 
```

    ## Joining, by = ".id"

    ## # A tibble: 5,000 x 3
    ##    .id   logb0b1 r.squared
    ##    <chr>   <dbl>     <dbl>
    ##  1 0001     2.06     0.895
    ##  2 0002     2.02     0.901
    ##  3 0003     2.04     0.906
    ##  4 0004     1.99     0.923
    ##  5 0005     2.00     0.894
    ##  6 0006     1.99     0.924
    ##  7 0007     1.99     0.914
    ##  8 0008     2.04     0.913
    ##  9 0009     1.98     0.935
    ## 10 0010     2.02     0.921
    ## # ... with 4,990 more rows
…
